<svg width="471" height="49" viewBox="0 0 471 49" fill="none" xmlns="http://www.w3.org/2000/svg">
<path d="M27.0993 4.184H1.20331V7.616H22.4193L0.891313 37.88V41H27.4113V37.568H5.62331L27.0993 7.304V4.184ZM55.0058 29.768V28.208C55.0058 21.552 50.7418 16.092 43.3578 16.04C36.4418 16.04 31.0858 21.5 31.0858 28.832C31.0858 36.164 36.4418 41.624 43.6698 41.624C47.6738 41.624 51.2618 40.116 54.1218 36.476L51.4698 34.292C50.1178 36.476 47.3098 38.504 43.6698 38.504C38.8338 38.504 35.1418 34.656 34.7258 29.768H55.0058ZM34.8298 26.96C34.8298 22.956 38.8858 19.16 43.3578 19.16C48.2978 19.16 51.2618 22.332 51.2618 26.96H34.8298ZM60.9684 16.664C61.0724 18.432 61.2284 20.72 61.2284 22.02V41H64.6604V28.52C64.6604 19.628 71.3164 19.16 72.0444 19.16C77.1404 19.16 78.6484 22.124 78.6484 27.532V41H82.0804V25.556C82.0804 19.524 79.1164 16.04 72.9284 16.04C69.7044 16.04 66.2724 17.912 64.7644 20.564H64.6604C64.6604 19.264 64.6604 17.964 64.5044 16.664H60.9684ZM95.1149 23.58H112.275V20.148H95.1149V7.616H113.575V4.184H91.3709V41H95.1149V23.58ZM122.605 28.676C122.605 23.684 125.725 20.096 130.717 20.096C135.709 20.096 138.829 23.684 138.829 28.676C138.829 33.668 135.709 37.256 130.717 37.256C125.725 37.256 122.605 33.668 122.605 28.676ZM117.613 28.676C117.613 35.852 123.385 41.624 130.717 41.624C138.049 41.624 143.821 35.852 143.821 28.676C143.821 21.5 138.049 15.728 130.717 15.728C123.385 15.728 117.613 21.5 117.613 28.676ZM149.684 41H154.364V28.312C154.364 22.592 157.328 20.096 161.228 20.096C164.192 20.096 166.844 21.812 166.844 26.44V41H171.524V25.14C171.524 18.588 167.364 15.728 162.58 15.728C158.784 15.728 155.664 17.548 154.468 20.148H154.364V16.352H149.684V41ZM201.875 30.392V28.728C201.875 22.384 198.547 15.728 189.863 15.728C182.479 15.728 177.123 21.292 177.123 28.676C177.123 36.008 182.011 41.624 189.811 41.624C194.543 41.624 198.131 39.96 200.731 36.58L197.195 33.876C195.375 36.112 193.295 37.568 190.435 37.568C186.119 37.568 182.115 34.708 182.115 30.392H201.875ZM182.115 26.648C182.115 23.372 185.131 19.472 189.759 19.472C194.491 19.472 196.779 22.54 196.883 26.648H182.115ZM239.106 4.184H233.23L223.922 18.9C221.686 22.436 220.23 25.244 220.23 29.768C220.23 36.944 225.95 41.624 232.866 41.624C239.782 41.624 245.502 37.36 245.502 29.248C245.502 21.188 239.418 17.6 234.114 17.6C232.606 17.6 231.254 17.86 230.058 18.432H229.85L239.106 4.184ZM225.222 29.612C225.222 25.14 228.29 21.968 232.866 21.968C237.442 21.968 240.51 25.14 240.51 29.612C240.51 34.084 237.442 37.256 232.866 37.256C228.29 37.256 225.222 34.084 225.222 29.612ZM285.086 21.5C285.086 21.6354 284.883 21.974 284.477 22.5156C284.07 23.1927 283.529 24.0052 282.852 24.9531C282.174 26.0365 281.633 26.7135 281.227 26.9844C280.82 27.3906 280.549 27.526 280.414 27.3906C280.414 27.2552 280.414 27.1875 280.414 27.1875C280.414 27.0521 280.414 26.9167 280.414 26.7812C280.956 25.2917 281.497 23.4635 282.039 21.2969C282.716 19.1302 283.461 16.5573 284.273 13.5781C284.951 10.7344 285.492 8.16146 285.898 5.85938C286.44 3.69271 286.846 1.86458 287.117 0.375C287.388 0.510417 287.93 0.645833 288.742 0.78125C289.555 0.916667 290.503 1.1875 291.586 1.59375C292.534 2 293.076 2.54167 293.211 3.21875C293.346 3.76042 293.143 4.30208 292.602 4.84375C292.06 5.65625 291.451 7.07812 290.773 9.10938C290.232 11.0052 289.893 13.5781 289.758 16.8281C289.487 19.9427 289.419 22.5156 289.555 24.5469C289.69 26.7135 289.758 28.2708 289.758 29.2188C289.758 29.3542 289.826 30.2344 289.961 31.8594C290.096 33.4844 290.164 35.7188 290.164 38.5625C290.164 41.4062 290.029 43.5729 289.758 45.0625C289.487 46.5521 289.148 47.3646 288.742 47.5C288.471 47.5 288.133 47.5677 287.727 47.7031C287.32 47.8385 286.914 47.9062 286.508 47.9062C285.966 47.9062 285.628 47.7708 285.492 47.5C285.221 47.2292 285.086 46.8906 285.086 46.4844V21.5ZM299.102 12.7656H298.086C297.951 13.0365 297.612 13.6458 297.07 14.5938C296.529 15.5417 295.716 16.7604 294.633 18.25C293.685 19.6042 292.872 20.6198 292.195 21.2969C291.518 21.8385 291.044 22.1094 290.773 22.1094C290.773 22.1094 290.706 22.0417 290.57 21.9062C290.57 21.7708 290.57 21.7031 290.57 21.7031C290.706 21.5677 290.773 21.5 290.773 21.5C291.18 20.4167 291.654 18.9948 292.195 17.2344C292.872 15.474 293.549 13.4427 294.227 11.1406C295.039 8.83854 295.648 6.80729 296.055 5.04688C296.596 3.15104 297.003 1.59375 297.273 0.375C297.409 0.510417 297.883 0.713542 298.695 0.984375C299.372 1.11979 300.185 1.45833 301.133 2C302.081 2.40625 302.555 2.88021 302.555 3.42188C302.69 3.96354 302.555 4.4375 302.148 4.84375C301.878 4.97917 301.607 5.31771 301.336 5.85938C301.065 6.40104 300.727 7.07812 300.32 7.89062C299.914 8.83854 299.576 9.58333 299.305 10.125C299.169 10.6667 299.034 11.0729 298.898 11.3438H308.445C308.581 11.2083 308.716 10.9375 308.852 10.5312C309.122 10.125 309.393 9.65104 309.664 9.10938C310.07 8.43229 310.409 7.95833 310.68 7.6875C310.951 7.41667 311.221 7.28125 311.492 7.28125C311.492 7.28125 311.695 7.48438 312.102 7.89062C312.508 8.29688 312.982 8.90625 313.523 9.71875C314.065 10.5312 314.404 11.2083 314.539 11.75C314.81 12.2917 314.878 12.6302 314.742 12.7656H304.383C304.383 12.901 304.315 13.0365 304.18 13.1719C304.18 13.3073 304.112 13.5104 303.977 13.7812C303.977 13.9167 303.977 14.0521 303.977 14.1875C303.841 14.3229 303.773 14.3906 303.773 14.3906V21.7031H307.633C308.039 20.8906 308.445 20.0781 308.852 19.2656C309.393 18.4531 309.867 18.1146 310.273 18.25C310.68 18.25 311.154 18.6562 311.695 19.4688C312.102 20.2812 312.576 21.026 313.117 21.7031C313.388 22.2448 313.253 22.7188 312.711 23.125C312.169 23.3958 311.086 23.5312 309.461 23.5312C307.836 23.5312 306.549 23.5312 305.602 23.5312C304.654 23.3958 304.044 23.3281 303.773 23.3281V31.6562H308.242C308.378 31.3854 308.581 30.9792 308.852 30.4375C309.122 29.7604 309.461 29.151 309.867 28.6094C310.409 27.9323 310.883 27.7292 311.289 28C311.695 28.1354 312.102 28.474 312.508 29.0156C312.508 29.151 312.643 29.4219 312.914 29.8281C313.32 30.2344 313.659 30.776 313.93 31.4531C314.336 31.9948 314.539 32.401 314.539 32.6719C314.539 32.9427 314.404 33.0781 314.133 33.0781H303.773C303.773 33.7552 303.841 34.6354 303.977 35.7188C303.977 36.8021 304.044 38.0885 304.18 39.5781C304.18 40.9323 304.112 42.151 303.977 43.2344C303.977 44.3177 303.841 45.1979 303.57 45.875C303.57 46.1458 303.299 46.5521 302.758 47.0938C302.352 47.5 301.81 47.8385 301.133 48.1094C300.456 48.2448 299.914 48.1771 299.508 47.9062C299.237 47.5 299.102 47.026 299.102 46.4844V12.7656ZM356.18 19.2656H345.82C345.82 19.6719 345.617 20.2135 345.211 20.8906C344.805 21.4323 344.195 21.8385 343.383 22.1094C342.57 22.2448 341.893 22.1771 341.352 21.9062C340.945 21.5 340.742 21.026 340.742 20.4844C340.742 20.2135 340.742 19.1979 340.742 17.4375C340.607 15.8125 340.539 13.5781 340.539 10.7344C340.539 7.89062 340.607 5.79167 340.742 4.4375C340.878 2.94792 341.081 2.13542 341.352 2C341.487 1.86458 341.758 1.79688 342.164 1.79688C342.57 1.93229 343.044 2.13542 343.586 2.40625C344.128 2.8125 344.602 3.15104 345.008 3.42188C345.414 3.69271 345.685 3.89583 345.82 4.03125H355.977C356.518 3.35417 356.992 2.74479 357.398 2.20312C357.94 1.66146 358.482 1.45833 359.023 1.59375C359.43 1.86458 359.904 2.33854 360.445 3.01562C360.987 3.55729 361.529 4.09896 362.07 4.64062C362.07 4.77604 362.138 4.91146 362.273 5.04688C362.273 5.18229 362.273 5.38542 362.273 5.65625C362.273 5.79167 362.273 5.92708 362.273 6.0625C362.273 6.19792 362.273 6.33333 362.273 6.46875C362.003 7.01042 361.799 7.95833 361.664 9.3125C361.664 10.8021 361.596 12.6302 361.461 14.7969C361.461 16.9635 361.326 18.5885 361.055 19.6719C360.784 20.7552 360.445 21.3646 360.039 21.5C359.497 21.6354 358.956 21.7708 358.414 21.9062C357.872 22.0417 357.398 22.0417 356.992 21.9062C356.586 21.7708 356.315 21.4323 356.18 20.8906C356.18 20.349 356.18 19.8073 356.18 19.2656ZM356.18 17.8438V5.45312H345.82V17.8438H356.18ZM361.461 41.8125H355.773C355.773 42.2188 355.773 42.7604 355.773 43.4375C355.773 43.9792 355.638 44.5208 355.367 45.0625C355.096 45.6042 354.69 45.9427 354.148 46.0781C353.471 46.2135 352.862 46.2812 352.32 46.2812C351.914 46.2812 351.576 45.5365 351.305 44.0469C351.034 42.5573 350.898 40.1875 350.898 36.9375C350.898 33.6875 350.966 31.1146 351.102 29.2188C351.372 27.4583 351.508 26.4427 351.508 26.1719C351.643 25.6302 351.846 25.1562 352.117 24.75C352.388 24.3438 352.727 24.276 353.133 24.5469C353.674 24.6823 354.216 24.9531 354.758 25.3594C355.164 25.6302 355.57 25.901 355.977 26.1719H361.258C361.393 25.7656 361.596 25.3594 361.867 24.9531C362.273 24.5469 362.612 24.2083 362.883 23.9375C363.289 23.6667 363.695 23.599 364.102 23.7344C364.508 24.0052 364.846 24.3438 365.117 24.75C365.388 25.0208 365.659 25.2917 365.93 25.5625C366.201 25.8333 366.471 26.1042 366.742 26.375C366.878 26.7812 366.945 27.1198 366.945 27.3906C366.945 27.7969 366.878 28.1354 366.742 28.4062C366.471 28.8125 366.336 29.8958 366.336 31.6562C366.201 33.2812 366.133 35.3802 366.133 37.9531C366.133 40.526 365.997 42.4219 365.727 43.6406C365.456 44.8594 365.117 45.5365 364.711 45.6719C364.034 45.8073 363.357 45.875 362.68 45.875C362.138 45.875 361.732 45.6719 361.461 45.2656C361.326 44.8594 361.258 44.3177 361.258 43.6406C361.393 42.9635 361.461 42.3542 361.461 41.8125ZM361.461 40.3906V27.3906H355.773V40.3906H361.461ZM345.414 41.4062H340.133C340.133 41.8125 340.133 42.3542 340.133 43.0312C340.133 43.7083 339.997 44.3854 339.727 45.0625C339.456 45.6042 339.049 45.9427 338.508 46.0781C337.831 46.2135 337.221 46.2812 336.68 46.2812C336.273 46.2812 335.867 45.5365 335.461 44.0469C335.19 42.4219 335.055 39.9844 335.055 36.7344C335.055 33.4844 335.122 30.9792 335.258 29.2188C335.393 27.3229 335.529 26.2396 335.664 25.9688C335.799 25.2917 335.935 24.75 336.07 24.3438C336.341 23.9375 336.68 23.8021 337.086 23.9375C337.628 24.2083 338.102 24.5469 338.508 24.9531C339.049 25.3594 339.523 25.6979 339.93 25.9688H345.211C345.617 25.4271 345.956 24.8854 346.227 24.3438C346.633 23.8021 347.039 23.5312 347.445 23.5312C347.987 23.5312 348.461 23.8021 348.867 24.3438C349.273 24.75 349.68 25.224 350.086 25.7656C350.086 25.901 350.154 26.0365 350.289 26.1719C350.424 26.3073 350.56 26.5781 350.695 26.9844C350.831 27.2552 350.898 27.4583 350.898 27.5938C350.898 27.8646 350.831 28 350.695 28C350.424 28.5417 350.289 29.625 350.289 31.25C350.154 32.875 350.086 34.9062 350.086 37.3438C350.086 39.9167 349.951 41.8125 349.68 43.0312C349.409 44.25 349.07 44.9271 348.664 45.0625C347.987 45.1979 347.378 45.2656 346.836 45.2656C346.159 45.2656 345.753 45.0625 345.617 44.6562C345.346 44.25 345.279 43.7083 345.414 43.0312C345.414 42.3542 345.414 41.8125 345.414 41.4062ZM345.414 39.9844V27.3906H340.133V39.9844H345.414ZM401.07 36.5312C400.529 37.0729 399.784 37.75 398.836 38.5625C397.753 39.5104 396.466 40.526 394.977 41.6094C393.487 42.5573 392.133 43.3021 390.914 43.8438C389.695 44.25 388.68 44.5885 387.867 44.8594C387.596 44.8594 387.393 44.8594 387.258 44.8594C386.987 44.8594 386.784 44.8594 386.648 44.8594C386.648 44.724 386.716 44.5885 386.852 44.4531C386.987 44.1823 387.122 43.9792 387.258 43.8438C387.935 43.3021 388.815 42.5573 389.898 41.6094C390.846 40.6615 391.862 39.5104 392.945 38.1562C394.029 36.8021 394.977 35.5833 395.789 34.5C396.466 33.2812 397.008 32.3333 397.414 31.6562C397.279 31.6562 396.669 31.6562 395.586 31.6562C394.503 31.7917 392.945 31.8594 390.914 31.8594C389.018 31.8594 387.664 31.724 386.852 31.4531C386.039 31.0469 385.768 30.7083 386.039 30.4375C386.039 30.3021 386.648 30.2344 387.867 30.2344C388.951 30.2344 390.711 30.2344 393.148 30.2344C395.451 30.2344 397.279 30.2344 398.633 30.2344C399.987 30.2344 400.799 30.2344 401.07 30.2344V25.7656H395.789C395.789 26.3073 395.586 26.9844 395.18 27.7969C394.773 28.474 394.164 28.9479 393.352 29.2188C392.674 29.625 392.133 29.625 391.727 29.2188C391.32 28.8125 391.117 28.4062 391.117 28V14.3906C390.982 14.526 390.643 14.8646 390.102 15.4062C389.424 15.9479 388.612 16.5573 387.664 17.2344C386.852 17.776 386.31 17.9792 386.039 17.8438C385.904 17.5729 385.971 17.1667 386.242 16.625C386.648 15.9479 387.122 15 387.664 13.7812C388.341 12.6979 389.018 11.3438 389.695 9.71875C390.372 8.09375 390.914 6.67188 391.32 5.45312C391.727 4.09896 392.065 3.01562 392.336 2.20312C392.336 2.06771 392.674 2 393.352 2C394.029 1.86458 394.909 2 395.992 2.40625C397.076 2.8125 397.753 3.21875 398.023 3.625C398.294 4.03125 398.294 4.36979 398.023 4.64062C397.753 4.91146 397.549 5.18229 397.414 5.45312C397.143 5.72396 396.872 6.0625 396.602 6.46875C396.331 6.875 396.128 7.28125 395.992 7.6875C395.721 7.95833 395.586 8.22917 395.586 8.5H401.477C401.612 7.41667 401.747 6.33333 401.883 5.25C402.018 4.03125 402.289 3.15104 402.695 2.60938C403.237 2.06771 404.049 1.93229 405.133 2.20312C406.081 2.33854 407.164 2.54167 408.383 2.8125C408.654 2.94792 408.721 3.28646 408.586 3.82812C408.451 4.23438 408.044 4.84375 407.367 5.65625C406.69 6.46875 406.081 7.14583 405.539 7.6875C404.997 8.09375 404.727 8.36458 404.727 8.5H410.617C411.023 7.6875 411.497 6.94271 412.039 6.26562C412.445 5.45312 412.852 4.97917 413.258 4.84375C413.799 4.84375 414.341 5.18229 414.883 5.85938C415.424 6.40104 416.034 7.07812 416.711 7.89062C417.117 8.43229 417.049 8.97396 416.508 9.51562C416.102 9.92188 414.883 10.1927 412.852 10.3281C410.956 10.3281 409.398 10.2604 408.18 10.125C407.096 9.98958 406.419 9.92188 406.148 9.92188V13.9844H409.805C409.94 13.849 410.076 13.5781 410.211 13.1719C410.346 12.901 410.549 12.4948 410.82 11.9531C411.091 11.5469 411.362 11.2083 411.633 10.9375C411.768 10.8021 411.971 10.7344 412.242 10.7344C412.378 10.7344 412.648 10.8698 413.055 11.1406C413.596 11.4115 414.07 11.8854 414.477 12.5625C414.883 13.1042 415.154 13.6458 415.289 14.1875C415.424 14.7292 415.424 15.0677 415.289 15.2031H406.148V19.2656H409.805C409.94 19.1302 410.143 18.7917 410.414 18.25C410.685 17.7083 411.023 17.1667 411.43 16.625C411.836 16.0833 412.242 15.8802 412.648 16.0156C413.055 16.151 413.393 16.3542 413.664 16.625C414.477 17.7083 415.018 18.6562 415.289 19.4688C415.695 20.2812 415.357 20.8229 414.273 21.0938C413.326 21.2292 412.039 21.2292 410.414 21.0938C408.789 20.8229 407.367 20.6875 406.148 20.6875V24.3438H411.836C412.107 24.2083 412.378 23.9375 412.648 23.5312C412.919 22.9896 413.258 22.5156 413.664 22.1094C414.07 21.7031 414.477 21.5 414.883 21.5C415.289 21.6354 415.695 21.8385 416.102 22.1094C416.237 22.3802 416.44 22.651 416.711 22.9219C416.982 23.1927 417.253 23.5312 417.523 23.9375C417.794 24.3438 417.93 24.6823 417.93 24.9531C417.93 25.3594 417.862 25.6302 417.727 25.7656H406.148C406.148 26.0365 406.081 26.375 405.945 26.7812C405.945 27.1875 405.878 27.5938 405.742 28C405.607 28.5417 405.539 28.9479 405.539 29.2188C405.539 29.625 405.539 29.9635 405.539 30.2344H413.664C414.07 29.4219 414.477 28.6094 414.883 27.7969C415.289 26.9844 415.695 26.5781 416.102 26.5781C416.508 26.5781 416.982 26.9167 417.523 27.5938C418.065 28.2708 418.674 28.9479 419.352 29.625C419.893 30.3021 419.758 30.8438 418.945 31.25C418.268 31.6562 416.711 31.9271 414.273 32.0625C411.971 32.0625 410.143 31.9948 408.789 31.8594C407.435 31.724 406.69 31.6562 406.555 31.6562C407.096 32.1979 407.841 32.8073 408.789 33.4844C409.737 34.1615 410.888 34.8385 412.242 35.5156C413.596 36.1927 414.815 36.7344 415.898 37.1406C416.982 37.5469 417.862 37.8854 418.539 38.1562C418.81 38.1562 418.878 38.4271 418.742 38.9688C418.742 39.375 418.607 40.0521 418.336 41C417.93 41.9479 417.591 42.6927 417.32 43.2344C417.185 43.776 417.117 44.1823 417.117 44.4531C416.711 44.724 416.034 44.5885 415.086 44.0469C414.003 43.5052 412.648 42.2865 411.023 40.3906C409.398 38.4948 408.112 36.9375 407.164 35.7188C406.352 34.3646 405.878 33.5521 405.742 33.2812C405.742 33.9583 405.878 35.0417 406.148 36.5312C406.284 38.1562 406.284 39.9844 406.148 42.0156C406.148 44.0469 405.742 45.5365 404.93 46.4844C404.117 47.2969 403.237 47.7031 402.289 47.7031C401.883 47.7031 401.544 47.2969 401.273 46.4844C401.003 45.6719 400.867 44.3854 400.867 42.625C400.867 40.8646 400.935 39.4427 401.07 38.3594C401.07 37.4115 401.07 36.8021 401.07 36.5312ZM401.477 13.7812V9.92188H395.586V13.7812H401.477ZM401.477 19.2656V15.2031H395.586V19.2656H401.477ZM401.477 24.3438V20.6875H395.586V24.3438H401.477ZM451.242 15.2031C451.378 15.6094 451.378 15.9479 451.242 16.2188C451.107 16.3542 450.701 16.4896 450.023 16.625C449.346 16.625 448.805 16.5573 448.398 16.4219C447.992 16.2865 447.721 16.2188 447.586 16.2188C447.586 16.3542 447.518 16.5573 447.383 16.8281C447.383 16.9635 447.315 17.1667 447.18 17.4375C447.044 17.7083 446.909 17.9115 446.773 18.0469C446.638 18.1823 446.503 18.25 446.367 18.25V22.1094H447.383C447.654 21.1615 448.06 20.4167 448.602 19.875C449.279 19.4688 449.956 19.6042 450.633 20.2812C451.31 20.9583 451.648 21.6354 451.648 22.3125C451.784 22.9896 451.784 23.3958 451.648 23.5312C451.378 23.6667 451.039 23.7344 450.633 23.7344C450.227 23.8698 449.685 23.8698 449.008 23.7344C448.466 23.7344 447.924 23.7344 447.383 23.7344C446.977 23.599 446.638 23.5312 446.367 23.5312V34.0938C446.503 33.6875 446.638 33.1458 446.773 32.4688C446.909 31.7917 447.044 31.0469 447.18 30.2344C447.315 29.2865 447.383 28.474 447.383 27.7969C447.383 27.1198 447.383 26.5781 447.383 26.1719C447.383 25.7656 447.518 25.4271 447.789 25.1562C448.195 25.0208 448.737 25.0885 449.414 25.3594C450.091 25.4948 450.701 25.6979 451.242 25.9688C451.648 26.1042 451.987 26.1719 452.258 26.1719C452.258 25.4948 452.326 24.9531 452.461 24.5469C452.732 24.1406 453.138 24.0729 453.68 24.3438C454.221 24.6146 454.763 24.9531 455.305 25.3594C455.711 25.7656 456.117 26.0365 456.523 26.1719H458.758V21.0938H457.133C457.133 21.5 456.997 21.974 456.727 22.5156C456.32 22.9219 455.779 23.2604 455.102 23.5312C454.424 23.6667 453.951 23.599 453.68 23.3281C453.409 22.9219 453.273 22.5156 453.273 22.1094C453.273 21.974 453.206 21.026 453.07 19.2656C452.935 17.6406 452.867 15.4062 452.867 12.5625C452.867 9.71875 453.003 7.6875 453.273 6.46875C453.544 5.25 453.815 4.77604 454.086 5.04688L456.93 6.875H457.539C457.539 6.73958 457.539 6.40104 457.539 5.85938C457.539 5.18229 457.607 4.36979 457.742 3.42188C457.878 2.33854 458.081 1.66146 458.352 1.39062C458.622 0.984375 458.893 0.78125 459.164 0.78125C460.383 1.1875 461.466 1.52604 462.414 1.79688C463.362 2.20312 463.701 2.67708 463.43 3.21875C463.159 3.625 462.617 4.16667 461.805 4.84375C460.992 5.52083 460.315 6.19792 459.773 6.875H464.648C464.919 6.46875 465.258 5.99479 465.664 5.45312C465.935 5.04688 466.273 4.84375 466.68 4.84375C467.086 4.70833 467.492 4.91146 467.898 5.45312C468.305 5.85938 468.711 6.26562 469.117 6.67188C469.253 6.80729 469.388 7.01042 469.523 7.28125C469.659 7.55208 469.727 7.82292 469.727 8.09375C469.727 8.36458 469.727 8.63542 469.727 8.90625C469.591 9.04167 469.523 9.17708 469.523 9.3125C469.253 9.71875 469.117 10.5312 469.117 11.75C468.982 12.9688 468.914 14.526 468.914 16.4219C468.779 18.3177 468.643 19.6719 468.508 20.4844C468.237 21.4323 467.966 21.9062 467.695 21.9062C467.424 22.0417 467.086 22.1771 466.68 22.3125C466.409 22.4479 466.07 22.5156 465.664 22.5156C465.258 22.5156 464.919 22.3802 464.648 22.1094C464.513 21.8385 464.445 21.5 464.445 21.0938H463.227V26.1719H465.461C465.461 26.0365 465.529 25.7656 465.664 25.3594C465.799 24.9531 466.003 24.5469 466.273 24.1406C466.68 23.7344 467.018 23.599 467.289 23.7344C467.56 23.7344 467.831 23.8021 468.102 23.9375C468.237 24.2083 468.508 24.5469 468.914 24.9531C469.32 25.224 469.659 25.6302 469.93 26.1719C470.201 26.5781 470.268 26.9844 470.133 27.3906C470.133 27.7969 469.997 28.2031 469.727 28.6094C469.456 29.0156 469.32 29.9635 469.32 31.4531C469.456 32.9427 469.456 34.8385 469.32 37.1406C469.32 39.3073 468.982 40.8646 468.305 41.8125C467.763 42.7604 467.086 43.1667 466.273 43.0312C466.003 42.8958 465.799 42.6927 465.664 42.4219C465.529 42.151 465.326 41.6771 465.055 41C464.919 40.3229 464.648 39.7812 464.242 39.375C463.971 38.9688 463.633 38.6979 463.227 38.5625C463.227 39.2396 463.294 40.0521 463.43 41C463.565 41.9479 463.565 43.0312 463.43 44.25C463.294 45.3333 462.888 46.1458 462.211 46.6875C461.398 47.2292 460.586 47.5677 459.773 47.7031C459.367 47.7031 459.029 47.026 458.758 45.6719C458.487 44.1823 458.352 41.8125 458.352 38.5625C458.352 35.4479 458.419 32.9427 458.555 31.0469C458.69 29.0156 458.758 27.7969 458.758 27.3906H456.523C456.523 27.7969 456.591 28.7448 456.727 30.2344C456.862 31.724 456.862 33.6875 456.727 36.125C456.727 38.5625 456.591 40.3906 456.32 41.6094C456.049 42.6927 455.779 43.3021 455.508 43.4375C455.237 43.4375 454.898 43.5052 454.492 43.6406C454.086 43.776 453.68 43.8438 453.273 43.8438C452.732 43.8438 452.393 43.7083 452.258 43.4375C452.122 43.1667 452.055 42.8958 452.055 42.625V27.5938L451.039 28C450.768 28.5417 450.497 29.2188 450.227 30.0312C449.956 30.8438 449.549 31.724 449.008 32.6719C448.602 33.7552 448.195 34.6354 447.789 35.3125C447.383 36.125 447.044 36.7344 446.773 37.1406C446.773 37.1406 446.977 37.0729 447.383 36.9375C447.924 36.8021 448.534 36.599 449.211 36.3281C450.023 36.0573 450.565 35.9219 450.836 35.9219C451.242 35.7865 451.445 35.7865 451.445 35.9219C451.31 36.599 450.768 37.276 449.82 37.9531C448.872 38.7656 447.518 39.7135 445.758 40.7969C443.997 41.7448 442.643 42.6927 441.695 43.6406C440.747 44.5885 440.206 45.401 440.07 46.0781C439.935 46.4844 439.732 46.7552 439.461 46.8906C439.19 46.8906 438.852 46.5521 438.445 45.875C438.039 45.1979 437.768 44.6562 437.633 44.25C437.497 43.7083 437.362 43.4375 437.227 43.4375C437.091 42.8958 437.023 42.3542 437.023 41.8125C437.159 41.1354 437.633 40.5938 438.445 40.1875C439.258 39.7812 440.003 39.4427 440.68 39.1719C441.357 38.901 441.831 38.6979 442.102 38.5625V23.5312H437.023C436.888 23.2604 436.888 22.9219 437.023 22.5156C437.294 22.2448 437.836 22.1094 438.648 22.1094C439.596 21.974 440.341 21.974 440.883 22.1094C441.56 22.1094 441.966 22.1094 442.102 22.1094V16.625C441.831 16.625 441.492 16.625 441.086 16.625C440.68 16.625 440.206 16.6927 439.664 16.8281C439.122 16.9635 438.716 17.2344 438.445 17.6406C438.039 17.9115 437.768 18.1823 437.633 18.4531C437.497 18.5885 437.362 18.6562 437.227 18.6562C437.091 18.6562 437.023 18.5208 437.023 18.25C437.023 17.8438 437.091 17.5729 437.227 17.4375C437.362 17.1667 437.43 16.9635 437.43 16.8281C437.836 16.151 438.242 15.2031 438.648 13.9844C439.19 12.7656 439.664 11.3438 440.07 9.71875C440.477 7.95833 440.747 6.46875 440.883 5.25C441.154 4.03125 441.289 2.94792 441.289 2C441.289 1.72917 441.628 1.45833 442.305 1.1875C442.982 0.916667 443.93 0.916667 445.148 1.1875C446.367 1.45833 447.18 1.86458 447.586 2.40625C448.128 2.94792 448.263 3.48958 447.992 4.03125C448.398 4.30208 449.008 4.84375 449.82 5.65625C450.768 6.33333 451.445 7.34896 451.852 8.70312C452.393 9.92188 452.461 10.9375 452.055 11.75C451.648 12.5625 451.107 13.1719 450.43 13.5781L451.242 15.2031ZM464.445 8.29688H457.133V13.1719H464.445V8.29688ZM464.445 14.5938H457.133V19.6719H464.445V14.5938ZM464.445 37.3438C464.716 37.4792 464.919 37.2083 465.055 36.5312C465.326 35.7188 465.461 34.5677 465.461 33.0781C465.461 31.4531 465.461 30.1667 465.461 29.2188C465.461 28.2708 465.461 27.6615 465.461 27.3906H463.227V37.1406L464.445 37.3438ZM447.992 12.3594C447.992 12.224 447.992 12.1562 447.992 12.1562C447.992 12.0208 448.06 12.0208 448.195 12.1562C448.331 12.1562 448.398 12.1562 448.398 12.1562C448.534 12.1562 448.602 12.1562 448.602 12.1562C448.602 11.8854 448.534 11.4792 448.398 10.9375C448.398 10.2604 448.263 9.58333 447.992 8.90625C447.721 8.09375 447.451 7.48438 447.18 7.07812C446.909 6.53646 446.638 6.13021 446.367 5.85938C446.096 6.40104 445.758 7.07812 445.352 7.89062C444.81 8.70312 444.268 9.65104 443.727 10.7344C443.049 11.6823 442.508 12.5625 442.102 13.375C441.56 14.1875 441.154 14.7969 440.883 15.2031H446.57L447.992 12.3594ZM438.445 25.7656C438.852 26.0365 439.393 26.6458 440.07 27.5938C440.747 28.5417 441.289 29.7604 441.695 31.25C442.237 32.7396 442.305 33.9583 441.898 34.9062C441.628 35.8542 441.154 36.4635 440.477 36.7344C439.935 37.0052 439.461 37.0729 439.055 36.9375C438.513 36.8021 438.174 36.3281 438.039 35.5156C437.904 34.7031 437.836 33.9583 437.836 33.2812C437.836 32.6042 437.904 32.1302 438.039 31.8594C438.039 31.724 437.971 31.3177 437.836 30.6406C437.701 29.9635 437.565 29.0833 437.43 28C437.294 26.9167 437.362 26.2396 437.633 25.9688C437.768 25.5625 438.039 25.4948 438.445 25.7656Z" fill="url(#paint0_linear)"/>
<defs>
<linearGradient id="paint0_linear" x1="-138" y1="-5" x2="-138" y2="72" gradientUnits="userSpaceOnUse">
<stop stop-color="#00DEFF"/>
<stop offset="1" stop-color="#00BAFF"/>
</linearGradient>
</defs>
</svg>
