<svg width="753" height="77" viewBox="0 0 753 77" fill="none" xmlns="http://www.w3.org/2000/svg">
<path fill-rule="evenodd" clip-rule="evenodd" d="M166 75L131.465 0H128.365L93 75H99.1986L110.766 50.5531H142.257L153.437 75H166ZM12.7434 2H0V76H5.53333V15.8401H6.37172L37.1125 76H39.6835L70.0889 15.3379H70.4801V76H83V2H70.4801L42.1987 58.7557H41.5838L12.7434 2ZM112 46H139L125.693 17L112 46ZM205.025 71.5872C203.265 72.0869 201.485 72.3367 199.688 72.3367C197.303 72.3367 195.056 71.9851 192.947 71.2819C190.838 70.5787 188.921 69.5702 187.197 68.2563C185.473 66.9424 183.959 65.3418 182.657 63.4542C181.355 61.5667 180.319 59.4201 179.548 57.0144L173 59.7347C173.954 62.4735 175.183 64.9069 176.687 67.035C178.191 69.1631 179.998 70.9673 182.107 72.4477C184.216 73.9282 186.647 75.057 189.398 75.8342C192.149 76.6114 195.286 77 198.807 77C203.136 77 206.933 76.4448 210.198 75.3345C213.463 74.2242 216.196 72.7161 218.397 70.81C220.598 68.904 222.249 66.6649 223.349 64.0926C224.45 61.5204 225 58.7724 225 55.8486C225 53.2579 224.413 50.917 223.239 48.8259C222.065 46.7348 220.506 44.8103 218.562 43.0523C216.618 41.2943 214.407 39.6751 211.931 38.1947C209.455 36.7142 206.933 35.2894 204.365 33.92C201.797 32.5506 199.275 31.1997 196.799 29.8673C194.323 28.535 192.113 27.1563 190.168 25.7314C188.224 24.3065 186.665 22.7891 185.491 21.1792C184.317 19.5692 183.73 17.802 183.73 15.8774C183.73 14.508 184.014 13.1664 184.583 11.8526C185.152 10.5387 186.014 9.35437 187.169 8.29957C188.325 7.24477 189.765 6.39354 191.489 5.74585C193.213 5.09817 195.231 4.77433 197.542 4.77433C200.146 4.77433 202.485 5.13518 204.558 5.85689C206.63 6.57859 208.455 7.60562 210.033 8.938C211.61 10.2704 212.968 11.8711 214.105 13.7401C215.242 15.6091 216.177 17.6724 216.911 19.9301L223.184 17.0433C222.304 14.2675 221.148 11.8248 219.717 9.71521C218.287 7.60561 216.544 5.82913 214.49 4.38572C212.436 2.94231 210.051 1.85052 207.337 1.11031C204.622 0.3701 201.54 0 198.092 0C194.277 0 190.893 0.499635 187.94 1.49892C184.987 2.4982 182.501 3.87682 180.484 5.63482C178.466 7.39282 176.934 9.47463 175.889 11.8803C174.843 14.286 174.321 16.8952 174.321 19.708C174.321 22.5208 174.898 25.0097 176.054 27.1748C177.21 29.34 178.723 31.3015 180.594 33.0595C182.465 34.8175 184.601 36.4089 187.004 37.8338C189.407 39.2587 191.856 40.6188 194.35 41.9142C196.845 43.2096 199.293 44.5049 201.696 45.8003C204.099 47.0957 206.236 48.4743 208.107 49.9362C209.978 51.3981 211.491 53.008 212.647 54.766C213.802 56.524 214.38 58.5318 214.38 60.7895C214.38 62.677 213.958 64.3332 213.114 65.7581C212.271 67.183 211.152 68.3858 209.758 69.3666C208.364 70.3474 206.786 71.0876 205.025 71.5872ZM301 2V6.7994H274.221V76H261.779V6.7994H235V2H301ZM364 6.7994V2H313V76H364V71.2006H325.335V38.0513H351.222V33.2519H325.335V6.7994H364ZM378 2H403.532C407.936 2 411.803 2.47435 415.133 3.42308C418.463 4.3718 421.238 5.70185 423.459 7.41327C425.679 9.12469 427.353 11.1616 428.482 13.5241C429.61 15.8866 430.175 18.463 430.175 21.2534C430.175 23.5601 429.74 25.7179 428.87 27.727C428.001 29.7361 426.78 31.5498 425.207 33.1682C423.634 34.7866 421.738 36.1817 419.518 37.3537C417.298 38.5256 414.855 39.4465 412.191 40.1161L439 76H424.624L399.036 41.2323H390.378V76H378V2ZM398.046 36H391V6H401.706C403.927 6 405.975 6.36166 407.851 7.08499C409.726 7.80832 411.347 8.81193 412.712 10.0958C414.078 11.3798 415.134 12.9258 415.88 14.7342C416.627 16.5425 417 18.5316 417 20.7016C417 23.0525 416.527 25.1682 415.58 27.0488C414.633 28.9295 413.313 30.5298 411.62 31.8499C409.926 33.17 407.924 34.1917 405.611 34.915C403.299 35.6383 400.777 36 398.046 36ZM450 2H473.333C477.185 2 480.796 2.46505 484.167 3.39517C487.537 4.32529 490.472 5.69255 492.972 7.49698C495.472 9.30142 497.435 11.5151 498.861 14.138C500.287 16.7609 501 19.7652 501 23.1508C501 26.4993 500.306 29.4198 498.917 31.9125C497.528 34.4052 495.694 36.4701 493.417 38.1071C491.139 39.7441 488.556 40.9625 485.667 41.7624C482.778 42.5623 479.833 42.9623 476.833 42.9623C475.537 42.9623 474.185 42.9344 472.778 42.8786C471.37 42.8228 470.019 42.7391 468.722 42.6275C467.426 42.5158 466.222 42.3856 465.111 42.2368C464 42.088 463.093 41.9392 462.389 41.7903V76H450V2ZM466.441 38.5228C464.869 38.2047 463.389 37.8023 462 37.3158V7H470.662C472.928 7 475.057 7.39298 477.049 8.17895C479.041 8.96492 480.777 10.0784 482.258 11.5193C483.738 12.9602 484.898 14.6912 485.739 16.7123C486.58 18.7333 487 20.9976 487 23.5053C487 25.6386 486.68 27.6503 486.041 29.5403C485.401 31.4304 484.423 33.0772 483.107 34.4807C481.792 35.8842 480.147 36.9883 478.173 37.793C476.2 38.5977 473.897 39 471.265 39C469.621 39 468.012 38.8409 466.441 38.5228ZM515 2H527V76H515V2ZM599 6.7994V2H548V76H599V71.2006H560.335V38.0513H586.222V33.2519H560.335V6.7994H599ZM625.522 38.7498C625.522 43.8943 626.301 48.5113 627.859 52.6009C629.417 56.6906 631.559 60.151 634.285 62.9823C637.011 65.8136 640.229 67.9787 643.938 69.4776C647.648 70.9766 651.672 71.726 656.012 71.726C658.609 71.726 661.112 71.2264 663.523 70.2271C665.934 69.2278 668.169 67.9232 670.228 66.3133C672.286 64.7033 674.132 62.8898 675.764 60.8727C677.396 58.8557 678.731 56.8109 679.77 54.7383L685 58.0692C683.479 60.5489 681.68 62.9268 679.603 65.203C677.526 67.4791 675.124 69.4961 672.398 71.2541C669.671 73.0121 666.593 74.4093 663.162 75.4456C659.731 76.4819 655.901 77 651.672 77C645.552 77 639.997 75.9822 635.008 73.9466C630.019 71.9111 625.744 69.1538 622.183 65.6748C618.623 62.1958 615.868 58.134 613.921 53.4892C611.974 48.8444 611 43.9313 611 38.7498C611 35.3078 611.445 31.9492 612.335 28.6738C613.226 25.3983 614.515 22.3265 616.202 19.4582C617.89 16.5899 619.949 13.9622 622.378 11.575C624.808 9.1878 627.553 7.13375 630.613 5.41276C633.673 3.69177 637.021 2.35941 640.656 1.41565C644.291 0.471877 648.167 0 652.284 0C656.216 0 659.842 0.527392 663.162 1.58219C666.481 2.63699 669.505 4.03412 672.231 5.77361C674.957 7.51311 677.387 9.5209 679.52 11.797C681.652 14.0732 683.479 16.4511 685 18.9308L679.603 22.4838C676.524 16.5251 673.075 12.1672 669.254 9.40988C665.434 6.65259 661.038 5.27397 656.068 5.27397C651.802 5.27397 647.815 6.05118 644.105 7.60562C640.396 9.16007 637.16 11.3807 634.396 14.2675C631.633 17.1543 629.463 20.661 627.886 24.7877C626.31 28.9143 625.522 33.5683 625.522 38.7498ZM753 6.7994V2H702V76H753V71.2006H714.335V38.0513H740.222V33.2519H714.335V6.7994H753Z" fill="url(#paint0_linear)" fill-opacity="0.15"/>
<defs>
<linearGradient id="paint0_linear" x1="-103.626" y1="0" x2="-103.626" y2="98.1931" gradientUnits="userSpaceOnUse">
<stop stop-color="white"/>
<stop offset="1" stop-color="white" stop-opacity="0.01"/>
</linearGradient>
</defs>
</svg>
